<?xml version="1.0" encoding="utf-8"?>
<!-- Generator: Avocode 2.6.0 - http://avocode.com -->
<svg height="90" width="90" xmlns:xlink="http://www.w3.org/1999/xlink" xmlns="http://www.w3.org/2000/svg" viewBox="0 0 90 90">
    <path fill="#ff9f00" fill-rule="evenodd" d="M 42.64 89.78 C 39.04 89.67 35.16 89.27 31.34 88.27 C 30.53 88.06 30.36 87.76 30.6 86.95 C 32.92 79.38 35.22 71.8 37.47 64.21 C 37.78 63.17 38.27 63.04 39.25 63.23 C 50.39 65.39 61.17 57.93 63.12 46.75 C 63.27 45.86 62.95 44.63 63.71 44.17 C 64.36 43.76 65.45 44.04 66.35 44.04 C 73.71 44.04 81.08 44.06 88.45 44.02 C 89.37 44.02 89.56 44.28 89.49 45.16 C 88.11 64.37 78.57 77.95 61.18 86.02 C 55.45 88.68 49.28 89.68 42.64 89.78" />
    <path fill="#2d8ac7" fill-rule="evenodd" d="M 42.68 0.08 C 53.79 0.28 63.21 3.8 71.31 10.78 C 71.48 10.93 71.62 11.11 71.8 11.24 C 72.5 11.75 72.51 12.15 71.85 12.8 C 67.85 16.73 63.89 20.7 59.96 24.7 C 59.36 25.3 58.98 25.26 58.39 24.76 C 53.51 20.64 47.83 18.78 41.49 19.16 C 36.31 19.46 31.65 21.26 27.68 24.66 C 26.87 25.35 26.41 25.45 25.6 24.61 C 21.82 20.73 17.97 16.91 14.11 13.1 C 13.4 12.41 13.27 11.99 14.09 11.26 C 20.05 5.94 26.92 2.49 34.77 0.91 C 37.53 0.36 40.32 0.27 42.68 0.08" />
    <path fill="#0f5481" fill-rule="evenodd" d="M 9.53 44.03 C 12.37 44.03 15.21 44.05 18.06 44.02 C 18.69 44.01 18.93 44.14 19 44.86 C 20.03 54.73 25.11 61.65 34.25 65.54 C 34.89 65.82 34.97 66.09 34.78 66.72 C 33.12 72.15 31.48 77.58 29.89 83.02 C 29.63 83.9 29.31 84.03 28.5 83.71 C 13 77.59 3.61 66.41 0.53 50 C 0.23 48.41 0.14 46.81 0.01 45.21 C -0.06 44.29 0.13 43.98 1.11 44.01 C 3.92 44.08 6.72 44.03 9.53 44.03" />
    <path fill="#0f5481" fill-rule="evenodd" d="M 76.42 42.24 C 73.61 42.24 70.81 42.23 68.01 42.25 C 67.38 42.25 67 42.2 66.93 41.39 C 66.47 36.02 64.54 31.25 60.89 27.23 C 60.52 26.83 60.57 26.58 60.93 26.22 C 65.09 22.08 69.24 17.93 73.36 13.77 C 73.92 13.21 74.16 13.57 74.51 13.94 C 78.28 18.02 81.18 22.65 83.15 27.84 C 84.79 32.16 85.74 36.63 85.91 41.27 C 85.95 42.12 85.69 42.26 84.93 42.25 C 82.1 42.22 79.26 42.24 76.42 42.24" />
    <path fill="#7aabcc" fill-rule="evenodd" d="M 9.53 42.24 C 6.68 42.24 3.84 42.21 1 42.25 C 0.19 42.26 -0.01 42 0.03 41.22 C 0.54 30.81 4.35 21.78 11.32 14.05 C 11.74 13.59 11.97 13.53 12.44 14 C 16.52 18.12 20.62 22.22 24.73 26.31 C 25.16 26.73 25.23 26.99 24.8 27.48 C 21.31 31.46 19.41 36.13 19.01 41.4 C 18.95 42.12 18.69 42.26 18.05 42.25 C 15.21 42.22 12.37 42.24 9.53 42.24" />
</svg>