<?xml version="1.0" encoding="utf-8"?>
<!-- Generator: Avocode 2.6.0 - http://avocode.com -->
<svg height="100" width="74" xmlns:xlink="http://www.w3.org/1999/xlink" xmlns="http://www.w3.org/2000/svg" viewBox="0 0 74 100">
    <path fill="#0f5481" fill-rule="evenodd" d="M 38.03 92.34 L 38.03 92.33 C 45.25 92.33 52.46 92.31 59.68 92.35 C 60.55 92.35 60.88 92.18 60.87 91.22 C 60.87 90.04 60.13 90.29 59.48 90.29 C 50.04 90.29 40.6 90.28 31.15 90.28 C 26.31 90.28 21.46 90.3 16.62 90.29 C 15.84 90.28 15.37 90.31 15.35 91.35 C 15.33 92.5 15.99 92.34 16.67 92.34 C 23.79 92.34 30.91 92.34 38.03 92.34 M 38.11 88.7 C 45.27 88.7 52.43 88.68 59.59 88.72 C 60.51 88.72 60.88 88.54 60.87 87.51 C 60.86 86.27 60.03 86.66 59.45 86.66 C 45.22 86.64 31 86.64 16.77 86.64 C 16.07 86.64 15.34 86.41 15.34 87.66 C 15.33 88.92 16.05 88.7 16.77 88.7 C 23.88 88.7 30.99 88.7 38.11 88.7 M 38.11 84.54 L 38.11 84.55 C 45.22 84.55 52.34 84.55 59.45 84.55 C 60.18 84.55 60.89 84.76 60.89 83.52 C 60.9 82.25 60.16 82.5 59.46 82.5 C 50.57 82.49 41.67 82.49 32.78 82.48 C 27.35 82.48 21.91 82.5 16.48 82.48 C 15.7 82.47 15.38 82.61 15.35 83.5 C 15.33 84.55 15.85 84.56 16.62 84.55 C 23.78 84.54 30.95 84.54 38.11 84.54 M 38.04 80.47 L 38.04 80.46 C 45.26 80.46 52.48 80.44 59.69 80.48 C 60.59 80.48 60.87 80.27 60.87 79.34 C 60.87 78.14 60.11 78.43 59.47 78.43 C 49.97 78.42 40.48 78.41 30.99 78.41 C 26.2 78.41 21.4 78.43 16.61 78.41 C 15.8 78.41 15.37 78.47 15.35 79.5 C 15.33 80.67 16.02 80.47 16.69 80.47 C 23.8 80.47 30.92 80.47 38.04 80.47 M 65.07 60.03 C 66.18 60.56 66.47 61.41 66.46 62.64 C 66.41 74.55 66.41 86.46 66.46 98.37 C 66.47 99.66 66.16 100 64.84 100 C 46.02 99.95 27.19 99.96 8.37 99.98 C 7.46 99.98 7.07 99.83 7.07 98.79 C 7.11 85.4 7.11 72.01 7.12 58.62 C 7.41 58.95 7.72 59.26 8 59.6 C 19.41 73.9 39.39 77.62 55.19 68.41 C 58.98 66.2 62.15 63.26 65.07 60.03" />
    <path fill="#2d8ac7" fill-rule="evenodd" d="M 67.14 36.84 C 67.02 28.25 64.1 20.8 57.87 14.82 C 50.77 8.02 42.27 5.36 32.5 6.47 C 19.97 7.9 5.8 19.01 5.92 36.97 C 6.03 54.21 19.81 67.62 37.09 67.44 C 53.67 67.26 67.3 53.37 67.14 36.84 M 65.07 60.03 C 62.15 63.26 58.98 66.2 55.19 68.41 C 39.39 77.62 19.41 73.9 8 59.6 C 7.72 59.26 7.41 58.95 7.12 58.62 C 5.25 55.63 3.39 52.65 2.2 49.28 C 1.23 46.55 0.65 43.76 0.27 40.89 C -0.32 36.45 0.1 32.1 1.17 27.79 C 2.58 22.08 5.32 17.08 9.17 12.65 C 15.41 5.46 23.37 1.4 32.7 0.45 C 44.32 -0.74 54.44 2.91 62.74 11.22 C 68.53 17.02 71.9 24.07 72.91 32.15 C 74.17 42.16 71.65 51.23 65.53 59.27 C 65.35 59.51 65.22 59.78 65.07 60.03" />
    <path fill="#fefdfd" fill-rule="evenodd" d="M 36.91 63.53 C 44.09 63.41 50.56 60.63 55.92 55.19 C 56.79 54.31 56.74 53.72 55.95 52.87 C 54.04 50.84 51.68 49.58 49.16 48.51 C 47.75 47.92 46.81 47.92 45.62 49.19 C 41.68 53.41 36.86 54.52 32.22 52.6 C 30.07 51.71 28.35 50.25 26.78 48.59 C 26.35 48.14 26.02 47.77 25.29 48.03 C 22.19 49.12 19.25 50.38 17.02 52.97 C 16.33 53.77 16.32 54.19 17.01 54.9 C 22.34 60.38 28.74 63.43 36.91 63.53 M 48.91 30.83 C 48.95 24.64 45.25 20.07 39.53 18.6 C 32.35 16.75 24.52 22.05 24.36 29.19 C 24.21 35.95 26.78 41.85 31.66 46.56 C 34.73 49.52 38.31 49.46 41.46 46.52 C 46.17 42.13 48.22 36.46 48.91 30.83 M 67.14 36.84 C 67.3 53.37 53.67 67.26 37.09 67.44 C 19.81 67.62 6.03 54.21 5.92 36.97 C 5.8 19.01 19.97 7.9 32.5 6.47 C 42.27 5.36 50.77 8.02 57.87 14.82 C 64.1 20.8 67.02 28.25 67.14 36.84" />
    <path fill="#ff9f00" fill-rule="evenodd" d="M 48.91 30.83 C 48.22 36.46 46.17 42.13 41.46 46.52 C 38.31 49.46 34.73 49.52 31.66 46.56 C 26.78 41.85 24.21 35.95 24.36 29.19 C 24.52 22.05 32.36 16.75 39.53 18.6 C 45.25 20.07 48.95 24.64 48.91 30.83" />
    <path fill="#ff9f00" fill-rule="evenodd" d="M 36.91 63.53 C 28.74 63.43 22.34 60.38 17.01 54.9 C 16.32 54.19 16.33 53.77 17.02 52.97 C 19.25 50.38 22.19 49.12 25.29 48.03 C 26.02 47.77 26.35 48.14 26.78 48.59 C 28.35 50.25 30.07 51.71 32.22 52.6 C 36.86 54.52 41.68 53.41 45.62 49.19 C 46.81 47.92 47.75 47.92 49.16 48.51 C 51.68 49.58 54.04 50.84 55.95 52.87 C 56.74 53.72 56.79 54.31 55.92 55.19 C 50.56 60.63 44.09 63.41 36.91 63.53" />
</svg>