<?xml version="1.0" encoding="utf-8"?>
<!-- Generator: Avocode 2.6.0 - http://avocode.com -->
<svg height="150" width="138" xmlns:xlink="http://www.w3.org/1999/xlink" xmlns="http://www.w3.org/2000/svg" viewBox="0 0 138 150">
    <path fill="#0f5481" fill-rule="evenodd" d="M 25.37 140.47 C 23.44 142.45 21.53 144.45 19.58 146.41 C 14.88 151.14 7.76 151.2 3.19 146.56 C -1.19 142.12 -1.04 134.95 3.54 130.41 C 5.63 128.34 7.74 126.3 9.84 124.25 C 16.1 118.27 22.37 112.29 28.62 106.3 C 31.35 103.69 34.02 101.03 36.8 98.48 C 37.76 97.6 38.1 96.7 38.1 95.42 C 38.07 65.83 38.08 36.23 38.08 6.64 C 38.08 2.49 40.18 0.27 44.33 0.26 C 62.84 0.24 81.35 0.24 99.85 0.24 C 109.99 0.24 120.13 0.36 130.27 0.2 C 134.66 0.12 137.21 2.88 137.2 7.09 C 137.09 47.06 137.13 87.03 137.13 127 C 137.13 131.14 134.86 133.41 130.68 133.41 C 102.03 133.41 73.38 133.41 44.73 133.41 C 40.64 133.41 38.6 131.67 37.87 127.37 C 33.63 131.81 29.5 136.14 25.37 140.47" />
    <path fill="#ffffff" fill-rule="evenodd" d="M 51.51 113.24 C 56.77 107.76 62.05 102.29 67.26 96.76 C 67.97 96.01 68.55 96.04 69.41 96.32 C 84.17 101.09 99.11 92.43 102.3 77.24 C 103.25 72.7 102.84 68.24 101.3 63.85 C 100.57 64.04 100.26 64.65 99.84 65.12 C 95.6 69.78 91.08 74.23 87.21 79.19 C 82.24 85.56 70.84 83.57 67.82 75.54 C 66.26 71.38 66.44 66.4 70.76 62.73 C 75.74 58.51 80.49 53.99 85.34 49.61 C 85.64 49.34 86.03 49.16 86.76 48.7 C 77.39 45.69 69.05 46.49 61.89 52.4 C 51.32 61.12 49.77 72.15 55.04 84.62 C 53.2 82.7 53.21 82.7 51.39 84.43 C 49.09 86.62 46.78 88.8 44.47 90.99 C 44.13 91.08 43.97 90.98 44.08 90.6 C 46.38 88.16 46.63 85.22 46.62 81.99 C 46.52 58.23 46.58 34.47 46.53 10.71 C 46.53 9.25 46.78 8.74 48.41 8.75 C 74.65 8.81 100.88 8.8 127.12 8.76 C 128.35 8.76 128.67 9.07 128.67 10.31 C 128.64 42.32 128.63 74.33 128.68 106.35 C 128.68 107.81 128.13 107.91 126.94 107.91 C 104.78 107.88 82.61 107.9 60.44 107.86 C 59.16 107.86 58.22 108.22 57.29 109.06 C 55.54 110.64 53.7 112.11 51.9 113.63 C 51.54 113.73 51.43 113.59 51.51 113.24" />
    <path fill="#2d8ac7" fill-rule="evenodd" d="M 19.65 127.4 C 19.54 126.52 19.96 125.86 20.58 125.24 C 31.47 114.37 42.34 103.48 53.23 92.61 C 54.5 91.34 56.21 91.27 57.33 92.35 C 58.59 93.57 58.56 95.09 57.13 96.53 C 46.22 107.46 35.29 118.37 24.38 129.31 C 23.48 130.21 22.45 130.53 21.34 130.06 C 20.24 129.6 19.54 128.73 19.65 127.4" />
    <path fill="#2d8ac7" fill-rule="evenodd" d="M 91.4 120.21 C 91.36 122.95 88.94 125.31 86.23 125.24 C 83.52 125.17 81.26 122.85 81.27 120.16 C 81.28 117.41 83.69 115.05 86.42 115.12 C 89.08 115.18 91.43 117.58 91.4 120.21" />
    <path fill="#ff9f00" fill-rule="evenodd" d="M 11.36 133 C 14.6 133.02 17.05 135.53 16.98 138.74 C 16.92 141.93 14.38 144.41 11.2 144.37 C 8.07 144.33 5.51 141.71 5.54 138.58 C 5.58 135.47 8.18 132.97 11.36 133" />
    <path fill="#f2f4f4" fill-rule="evenodd" d="M 89.51 4.31 C 89.42 5.41 88.89 6.09 87.76 6.1 C 86.63 6.11 85.99 5.42 85.97 4.37 C 85.95 3.31 86.63 2.6 87.71 2.59 C 88.79 2.57 89.39 3.25 89.51 4.31" />
    <path fill="#b4c9cf" fill-rule="evenodd" d="M 51.51 113.24 C 51.64 113.37 51.77 113.5 51.9 113.63 C 51.1 114.63 50.04 115.33 48.96 116.02 C 49.81 115.09 50.66 114.17 51.51 113.24" />
    <path fill="#beced4" fill-rule="evenodd" d="M 44.08 90.6 C 44.21 90.73 44.34 90.86 44.47 90.99 C 43.98 91.54 43.49 92.08 42.99 92.63 C 43.04 91.76 43.48 91.13 44.08 90.6" />
    <path fill="#ff9f00" fill-rule="evenodd" d="M 92.64 34.3 C 101.95 34.3 111.26 34.3 120.57 34.3 C 120.92 34.3 121.28 34.29 121.63 34.32 C 122.37 34.39 122.84 34.83 122.92 35.55 C 123.01 36.39 122.47 36.93 121.71 37.02 C 120.66 37.15 119.6 37.12 118.54 37.12 C 100.68 37.12 82.83 37.12 64.98 37.1 C 63.86 37.1 62.25 37.43 62.23 35.73 C 62.21 33.86 63.91 34.31 65.06 34.31 C 74.26 34.28 83.45 34.29 92.64 34.3" />
    <path fill="#ff9f00" fill-rule="evenodd" d="M 92.74 41.37 C 102.05 41.37 111.36 41.38 120.67 41.37 C 121.71 41.37 122.88 41.35 122.9 42.72 C 122.93 44.07 121.79 44.19 120.73 44.18 C 106.53 44.11 92.33 44.34 78.13 44.06 C 73.72 43.98 69.3 44.14 64.88 44.18 C 64.3 44.18 63.7 44.16 63.14 44.02 C 62.51 43.86 62.13 43.39 62.17 42.71 C 62.21 42.06 62.59 41.58 63.23 41.46 C 63.8 41.35 64.4 41.37 64.99 41.37 C 74.24 41.37 83.49 41.37 92.74 41.37" />
    <path fill="#ff9f00" fill-rule="evenodd" d="M 83.58 55.42 C 85.04 53.32 86.75 52.61 89.12 52.64 C 99.43 52.76 109.74 52.7 120.05 52.71 C 120.58 52.71 121.12 52.7 121.64 52.74 C 122.39 52.8 122.86 53.23 122.94 53.96 C 123.03 54.81 122.47 55.24 121.73 55.45 C 121.45 55.53 121.14 55.52 120.85 55.52 C 108.71 55.52 96.57 55.51 84.43 55.51 C 84.21 55.51 83.99 55.46 83.58 55.42" />
    <path fill="#ff9f00" fill-rule="evenodd" d="M 95.36 65.57 C 94.24 67.31 93.16 68.37 90.95 68.3 C 84.83 68.13 78.7 68.27 72.58 68.23 C 71.86 68.22 70.58 68.72 70.51 67.75 C 70.44 66.77 71.4 65.89 72.47 65.5 C 72.68 65.42 72.94 65.44 73.17 65.44 C 80.3 65.44 87.42 65.44 94.55 65.45 C 94.76 65.45 94.97 65.51 95.36 65.57" />
    <path fill="#ff9f00" fill-rule="evenodd" d="M 75.69 62.59 C 77.17 60.5 78.74 59.65 81.08 59.71 C 87.49 59.88 93.9 59.77 100.54 59.77 C 99.42 61.51 98.44 62.69 96.22 62.63 C 90.11 62.48 83.98 62.59 77.87 62.59 C 77.24 62.59 76.61 62.59 75.69 62.59" />
    <path fill="#ff9f00" fill-rule="evenodd" d="M 112.55 59.78 C 115.31 59.78 118.08 59.79 120.84 59.78 C 121.85 59.77 122.9 59.86 122.92 61.11 C 122.94 62.45 121.84 62.59 120.77 62.59 C 115.6 62.59 110.42 62.53 105.24 62.62 C 103.5 62.65 103.37 61.44 103.14 60.36 C 102.94 59.45 103.84 59.8 104.25 59.8 C 107.01 59.76 109.78 59.78 112.55 59.78 L 112.55 59.78 Z M 112.55 59.78" />
    <path fill="#ff9f00" fill-rule="evenodd" d="M 55.68 41.38 C 56.39 41.38 57.09 41.37 57.79 41.38 C 58.61 41.41 59.17 41.83 59.24 42.63 C 59.33 43.56 58.7 44.07 57.86 44.13 C 56.52 44.22 55.16 44.21 53.82 44.16 C 52.99 44.13 52.28 43.72 52.28 42.8 C 52.28 41.78 52.97 41.39 53.92 41.39 C 54.51 41.39 55.1 41.39 55.68 41.39 L 55.68 41.38 Z M 55.68 41.38" />
    <path fill="#ff9f00" fill-rule="evenodd" d="M 55.96 34.31 C 56.61 34.31 57.26 34.28 57.9 34.32 C 58.71 34.38 59.22 34.85 59.25 35.66 C 59.29 36.41 58.77 36.96 58.1 37 C 56.59 37.11 55.06 37.12 53.54 37.04 C 52.79 36.99 52.21 36.46 52.27 35.62 C 52.33 34.81 52.86 34.36 53.68 34.33 C 54.44 34.3 55.2 34.32 55.96 34.32 L 55.96 34.31" />
</svg>