<?xml version="1.0" encoding="utf-8"?>
<!-- Generator: Avocode 2.6.0 - http://avocode.com -->
<svg height="49" width="81" xmlns:xlink="http://www.w3.org/1999/xlink" xmlns="http://www.w3.org/2000/svg" viewBox="0 0 81 49">
    <path fill="#ffffff" fill-rule="evenodd" d="M 49.39 0 C 51.17 0 52.66 0.6 53.87 1.81 C 55.07 3.02 55.68 4.51 55.68 6.29 L 55.68 42.12 C 55.68 43.9 55.07 45.46 53.87 46.79 C 52.66 48.12 51.17 48.79 49.39 48.79 L 7.3 48.79 C 5.52 48.79 3.94 48.12 2.54 46.79 C 1.14 45.46 0.44 43.9 0.44 42.12 L 0.44 6.29 C 0.44 4.51 1.11 3.02 2.44 1.81 C 3.78 0.6 5.4 0 7.3 0 L 49.39 0 Z M 61.39 16.2 L 80.06 6.1 L 80.06 42.69 L 61.39 32.59 L 61.39 16.2 Z M 61.39 16.2" />
    <path fill="#ff9f00" fill-rule="evenodd" d="M 61.39 16.2 L 80.06 6.1 L 80.06 42.69 L 61.39 32.59 L 61.39 16.2 Z M 61.39 16.2" />
</svg>