<?xml version="1.0" encoding="utf-8"?>
<!-- Generator: Avocode 2.6.0 - http://avocode.com -->
<svg height="28" width="28" xmlns:xlink="http://www.w3.org/1999/xlink" xmlns="http://www.w3.org/2000/svg" viewBox="0 0 28 28">
    <path fill="#006087" fill-rule="evenodd" d="M 25.93 0 L 2.07 0 C 0.93 0 0 0.9 0 2.02 L 0 25.98 C 0 27.09 0.93 28 2.07 28 L 25.93 28 C 27.07 28 28 27.09 28 25.98 L 28 2.02 C 28 0.9 27.07 0 25.93 0 Z M 6.23 3.85 C 7.56 3.85 8.64 4.93 8.64 6.26 C 8.64 7.59 7.56 8.67 6.23 8.67 C 4.9 8.67 3.82 7.59 3.82 6.26 C 3.82 4.93 4.9 3.85 6.23 3.85 Z M 4.15 10.5 L 8.3 10.5 L 8.3 23.86 L 4.15 23.86 L 4.15 10.5 Z M 10.91 10.5 L 14.89 10.5 L 14.89 12.32 L 14.95 12.32 C 15.5 11.27 16.86 10.16 18.88 10.16 C 23.08 10.16 23.86 12.93 23.86 16.53 L 23.86 23.86 L 19.71 23.86 L 19.71 17.36 C 19.71 15.81 19.68 13.82 17.55 13.82 C 15.39 13.82 15.06 15.51 15.06 17.25 L 15.06 23.86 L 10.91 23.86 L 10.91 10.5 Z M 10.91 10.5" />
</svg>