<?xml version="1.0" encoding="utf-8"?>
<!-- Generator: Avocode 2.6.0 - http://avocode.com -->
<svg height="126" width="112" xmlns:xlink="http://www.w3.org/1999/xlink" xmlns="http://www.w3.org/2000/svg" viewBox="0 0 112 126">
    <path fill="#0f5481" fill-rule="evenodd" d="M 0.03 75.56 C 0.03 62.61 0.03 49.66 0.03 36.71 C 0.03 34.9 0.04 34.89 1.75 35.35 C 13.1 38.37 24.45 41.38 35.78 44.43 C 36.65 44.66 37.35 44.63 38.12 44.18 C 39.41 43.44 40.73 42.75 42.07 42.1 C 42.81 41.74 42.85 41.37 42.43 40.68 C 40.79 37.95 39.23 35.17 37.61 32.44 C 30.09 19.81 37.31 3.75 51.76 1 C 65.63 -1.65 78.29 10.44 76.3 24.45 C 76.17 25.39 76.47 25.7 77.34 25.93 C 87.8 28.67 98.25 31.46 108.71 34.23 C 111.05 34.85 111.06 34.84 111.06 37.25 C 111.06 62.74 111.06 88.23 111.06 113.72 C 111.06 114.08 111 114.45 111.06 114.8 C 111.25 116.1 110.69 116.21 109.59 115.92 C 100.39 113.43 91.17 110.99 81.96 108.54 C 81.02 108.28 80.01 108.19 79.14 107.78 C 75.52 106.08 72.45 107.1 69.1 108.96 C 58.84 114.69 48.39 120.1 38.03 125.66 C 37.3 126.05 36.64 126.09 35.83 125.87 C 24.54 122.83 13.25 119.8 1.94 116.86 C 0.5 116.48 -0.01 115.95 0 114.41 C 0.07 101.46 0.04 88.51 0.04 75.56 L 0.03 75.56 Z M 0.03 75.56" />
    <path fill="#7aabcc" fill-rule="evenodd" d="M 73.77 32.04 C 74.15 30.7 74.78 30.27 76.32 30.69 C 85.76 33.3 95.23 35.76 104.69 38.28 C 105.48 38.49 106.17 38.58 106.17 39.78 C 106.11 53.7 106.12 67.62 106.12 81.54 C 106.12 81.64 106.08 81.73 106.06 81.84 C 105.56 82.04 105.32 81.59 105.03 81.36 C 95.07 73.52 85.12 65.67 75.15 57.82 C 74.65 57.42 74.23 56.81 73.43 56.98 C 73.43 50.34 73.44 43.7 73.43 37.06 C 73.43 35.38 73.37 33.7 73.77 32.04" />
    <path fill="#2d8ac7" fill-rule="evenodd" d="M 73.77 32.04 C 74.17 32.47 74.04 33.01 74.04 33.51 C 74.05 40.74 74.05 47.97 74.05 55.2 C 74.06 55.88 74.09 56.54 73.43 56.98 C 67.41 63.98 61.38 70.99 55.35 77.99 C 49.5 84.75 43.65 91.5 37.79 98.25 C 37.66 98.4 37.49 98.52 37.34 98.66 C 36.43 98.48 36.45 97.71 36.45 97.09 C 36.52 92.26 36.13 87.43 36.67 82.61 C 36.75 81.9 36.72 81.18 36.72 80.46 C 36.73 71.16 36.72 61.85 36.73 52.55 C 36.73 51.64 36.6 50.68 37.35 49.93 C 39.73 48.63 42.12 47.37 44.47 46.01 C 45.31 45.52 45.5 46.02 45.82 46.58 C 48.73 51.63 51.66 56.68 54.59 61.73 C 54.86 62.21 55.15 62.68 55.54 63.32 C 61.68 52.79 67.72 42.41 73.77 32.04" />
    <path fill="#2d8ac7" fill-rule="evenodd" d="M 37.42 105.7 C 38.04 105.67 38.23 105.11 38.54 104.75 C 50.09 91.43 61.63 78.11 73.17 64.78 C 73.37 64.55 73.59 64.34 73.8 64.13 C 74.92 64.62 74.65 65.65 74.66 66.51 C 74.68 74.4 74.67 82.29 74.67 90.18 C 74.67 93.15 74.69 96.12 74.66 99.09 C 74.65 99.95 74.72 100.87 73.76 101.37 C 62.04 107.61 50.32 113.85 38.59 120.07 C 38.1 120.33 37.68 120.86 37.01 120.63 C 36.41 120.08 36.43 119.35 36.42 118.64 C 36.41 115.02 36.39 111.4 36.44 107.78 C 36.45 106.99 36.21 105.97 37.42 105.7" />
    <path fill="#7aabcc" fill-rule="evenodd" d="M 73.76 101.37 C 74.08 100.87 74.05 100.3 74.05 99.73 C 74.05 88.36 74.05 76.98 74.04 65.61 C 74.04 65.1 74.16 64.57 73.8 64.13 C 74.4 63.03 74.91 63.91 75.34 64.25 C 80.03 67.92 84.7 71.61 89.38 75.3 C 94.61 79.44 99.84 83.59 105.1 87.69 C 105.87 88.29 106.16 88.89 106.15 89.87 C 106.1 95.67 106.13 101.47 106.13 107.28 C 106.13 108.09 106.13 108.9 106.13 109.87 C 101.88 108.75 97.77 107.67 93.67 106.57 C 87.39 104.89 81.1 103.2 74.82 101.53 C 74.47 101.44 74.11 101.42 73.76 101.37" />
    <path fill="#ff9f00" fill-rule="evenodd" d="M 25.33 95.22 C 22.56 94.06 19.98 92.99 17.39 91.91 C 13.66 90.34 9.93 88.75 6.18 87.22 C 5.31 86.86 4.93 86.44 4.93 85.43 C 4.97 71.2 4.97 56.96 4.93 42.72 C 4.92 41.43 5.28 41.29 6.39 41.64 C 8.05 42.18 9.73 42.69 11.44 42.99 C 12.73 43.22 13.03 44 13.28 45.06 C 16.04 56.53 18.82 68 21.59 79.46 C 22.79 84.4 23.98 89.34 25.17 94.27 C 25.22 94.51 25.25 94.75 25.33 95.22" />
    <path fill="#7aabcc" fill-rule="evenodd" d="M 37.35 49.93 C 37.34 59.95 37.48 69.96 37.28 79.97 C 37.18 85.61 37.07 91.25 37.05 96.89 C 37.05 97.48 36.86 98.13 37.34 98.66 C 36.79 99.74 36.07 99.65 34.97 99.35 C 31.97 98.53 30.71 96.73 30.01 93.67 C 26.4 77.94 22.5 62.29 18.71 46.61 C 18.29 44.9 18.31 44.87 19.98 45.31 C 25.77 46.84 31.56 48.39 37.35 49.93" />
    <path fill="#7aabcc" fill-rule="evenodd" d="M 37.42 105.7 C 36.86 106.18 37.05 106.83 37.05 107.42 C 37.02 111.82 37.02 116.23 37.01 120.63 C 36.53 120.93 36.06 120.8 35.54 120.66 C 25.7 118.03 15.86 115.42 6.01 112.81 C 5.4 112.65 4.93 112.51 4.94 111.65 C 4.98 105.19 4.96 98.73 4.96 92.02 C 15.89 96.62 26.65 101.16 37.42 105.7" />
    <path fill="#ffffff" fill-rule="evenodd" d="M 55.23 29.98 C 49.99 29.96 45.77 25.74 45.76 20.51 C 45.76 15.26 50.03 11.02 55.33 11.03 C 60.61 11.04 64.82 15.31 64.78 20.61 C 64.75 25.81 60.48 30 55.23 29.98" />
</svg>