<?xml version="1.0" encoding="utf-8"?>
<!-- Generator: Avocode 2.6.0 - http://avocode.com -->
<svg height="130" width="130" xmlns:xlink="http://www.w3.org/1999/xlink" xmlns="http://www.w3.org/2000/svg" viewBox="0 0 130 130">
    <path fill="#0f5481" fill-rule="evenodd" d="M 64.81 28.44 C 45.92 28.44 27.04 28.45 8.15 28.44 C 2.78 28.44 0 25.58 0.01 20.15 C 0.02 16.14 0 12.13 0.02 8.12 C 0.04 2.69 4.21 -0.65 9.54 0.43 C 10.28 0.58 10.52 0.92 10.52 1.59 C 10.52 2.24 10.53 2.9 10.52 3.55 C 10.52 4.67 11.07 5.45 12.16 5.5 C 13.38 5.56 14 4.77 14.02 3.55 C 14.02 2.97 14.07 2.38 14.02 1.8 C 13.91 0.53 14.67 0.4 15.67 0.42 C 16.64 0.44 17.64 0.32 17.53 1.81 C 17.48 2.53 17.5 3.27 17.58 3.99 C 17.67 4.92 18.3 5.46 19.17 5.51 C 20.16 5.56 20.83 4.99 20.98 3.98 C 21.06 3.41 21.06 2.81 21.01 2.23 C 20.9 1 21.23 0.37 22.67 0.38 C 24.07 0.39 24.72 0.78 24.53 2.24 C 24.48 2.67 24.53 3.12 24.54 3.55 C 24.56 4.77 25.18 5.56 26.4 5.5 C 27.49 5.44 28.03 4.65 28.02 3.54 C 28.01 3.17 28.07 2.8 28.01 2.44 C 27.75 0.75 28.55 0.38 30.12 0.39 C 38.8 0.45 47.48 0.42 56.16 0.42 C 77.81 0.42 99.47 0.42 121.13 0.43 C 127.09 0.43 129.57 2.95 129.58 8.98 C 129.58 12.91 129.59 16.85 129.58 20.79 C 129.56 25.43 126.55 28.44 121.91 28.44 C 102.88 28.45 83.84 28.44 64.81 28.44" />
    <path fill="#0f5481" fill-rule="evenodd" d="M 64.68 59.95 C 45.87 59.95 27.06 59.96 8.25 59.95 C 2.82 59.95 0.03 57.17 0.02 51.77 C 0.01 47.62 -0.01 43.46 0.01 39.31 C 0.05 34.18 4.68 30.68 9.65 31.95 C 10.43 32.15 10.5 32.6 10.51 33.21 C 10.53 34.01 10.48 34.83 10.6 35.61 C 10.74 36.51 11.39 37.03 12.28 37.02 C 13.17 37.02 13.81 36.5 13.95 35.59 C 14.05 35.02 14.06 34.43 14 33.85 C 13.88 32.51 14.26 31.89 15.78 31.89 C 17.34 31.88 17.65 32.58 17.53 33.87 C 17.48 34.38 17.5 34.9 17.55 35.4 C 17.66 36.43 18.3 37.02 19.29 37.01 C 20.28 37 20.89 36.38 20.99 35.36 C 21.04 34.85 21.07 34.34 21.01 33.83 C 20.86 32.46 21.32 31.91 22.81 31.89 C 24.41 31.87 24.64 32.63 24.53 33.9 C 24.49 34.33 24.52 34.77 24.54 35.21 C 24.59 36.34 25.21 37.03 26.31 37.02 C 27.29 37.01 27.85 36.36 28.02 35.35 C 28.2 34.25 27.43 32.74 28.57 32.14 C 29.5 31.65 30.85 31.94 32.01 31.94 C 61.83 31.94 91.65 31.93 121.48 31.94 C 126.89 31.94 129.58 34.62 129.58 39.96 C 129.58 44.04 129.59 48.13 129.57 52.21 C 129.54 57.03 126.61 59.95 121.77 59.95 C 102.74 59.96 83.71 59.95 64.68 59.95" />
    <path fill="#0f5481" fill-rule="evenodd" d="M 64.67 91.48 C 45.86 91.48 27.05 91.48 8.23 91.48 C 2.85 91.48 0.02 88.67 0.01 83.28 C 0 79.12 0.03 74.96 0.01 70.81 C 0 65.83 3.7 62.73 9.67 63.48 C 10.33 63.56 10.5 63.96 10.5 64.53 C 10.51 65.25 10.51 65.98 10.53 66.71 C 10.57 67.84 11.19 68.55 12.29 68.53 C 13.38 68.51 13.98 67.78 14.01 66.66 C 14.02 66.22 14.06 65.78 14.01 65.35 C 13.85 63.98 14.31 63.42 15.81 63.41 C 17.39 63.39 17.65 64.14 17.53 65.41 C 17.49 65.92 17.5 66.44 17.55 66.94 C 17.67 67.96 18.31 68.56 19.3 68.54 C 20.29 68.52 20.91 67.9 21 66.88 C 21.05 66.37 21.07 65.85 21.02 65.35 C 20.86 63.99 21.31 63.42 22.81 63.41 C 24.4 63.39 24.64 64.14 24.54 65.41 C 24.5 65.92 24.51 66.44 24.57 66.94 C 24.68 67.96 25.32 68.56 26.31 68.54 C 27.3 68.51 27.81 67.87 28.03 66.88 C 28.29 65.76 27.23 64.18 28.75 63.58 C 29.77 63.19 31.05 63.46 32.22 63.46 C 61.97 63.46 91.72 63.46 121.47 63.46 C 126.88 63.46 129.56 66.11 129.57 71.47 C 129.58 75.56 129.6 79.64 129.58 83.72 C 129.55 88.53 126.59 91.47 121.77 91.47 C 102.74 91.48 83.71 91.48 64.67 91.48" />
    <path fill="#2d8ac7" fill-rule="evenodd" d="M 68.3 103.95 C 68.3 106.28 68.34 108.61 68.28 110.94 C 68.26 111.97 68.43 112.47 69.67 112.52 C 72.52 112.66 73.53 113.83 73.54 116.66 C 73.56 119.72 73.58 122.78 73.54 125.84 C 73.51 128.6 72.12 129.96 69.34 129.98 C 66.36 130.01 63.37 130 60.38 129.98 C 57.45 129.97 56.08 128.65 56.05 125.76 C 56.02 122.63 56.02 119.5 56.05 116.37 C 56.07 113.86 57.2 112.6 59.76 112.52 C 61.03 112.48 61.33 112.07 61.32 110.88 C 61.26 106.15 61.34 101.41 61.27 96.68 C 61.25 95.35 61.6 94.95 62.97 94.94 C 68.29 94.88 68.29 94.82 68.3 100.01 C 68.31 101.32 68.3 102.63 68.3 103.95" />
    <path fill="#2d8ac7" fill-rule="evenodd" d="M 91.53 124.73 C 87.3 124.73 83.07 124.69 78.84 124.75 C 77.56 124.77 76.99 124.41 77.03 123.03 C 77.22 116.49 76.14 117.85 82.08 117.76 C 89.15 117.65 96.23 117.73 103.3 117.75 C 106.13 117.76 107.67 119.01 107.68 121.2 C 107.69 123.39 106.07 124.72 103.35 124.73 C 99.41 124.75 95.47 124.74 91.53 124.74 L 91.53 124.73" />
    <path fill="#2d8ac7" fill-rule="evenodd" d="M 38.75 117.74 C 42.76 117.75 46.77 117.78 50.78 117.73 C 52.12 117.71 52.58 118.2 52.55 119.51 C 52.41 125.96 53.48 124.64 47.48 124.72 C 40.7 124.8 33.91 124.73 27.13 124.72 C 24.34 124.72 22.78 123.45 22.8 121.24 C 22.83 119 24.33 117.76 27.15 117.75 C 31.02 117.72 34.89 117.74 38.75 117.74" />
    <path fill="#fdfdfd" fill-rule="evenodd" d="M 101.8 19.66 C 98.94 19.71 96.46 17.37 96.35 14.53 C 96.24 11.56 98.62 9.06 101.62 8.99 C 104.48 8.93 106.96 11.25 107.07 14.12 C 107.19 17.06 104.77 19.61 101.8 19.66" />
    <path fill="#ff9f00" fill-rule="evenodd" d="M 115.78 9.01 C 118.68 9.03 121.06 11.39 121.09 14.27 C 121.11 17.22 118.64 19.68 115.67 19.65 C 112.79 19.61 110.41 17.24 110.38 14.37 C 110.34 11.39 112.77 8.99 115.78 9.01" />
    <path fill="#ffffff" fill-rule="evenodd" d="M 115.66 51.2 C 112.68 51.17 110.29 48.74 110.32 45.75 C 110.34 42.78 112.83 40.37 115.8 40.43 C 118.55 40.48 121.08 43.05 121.09 45.8 C 121.1 48.7 118.57 51.22 115.66 51.2" />
    <path fill="#ff9f00" fill-rule="evenodd" d="M 106.94 45.93 C 106.91 48.93 104.69 51.17 101.73 51.19 C 98.64 51.2 96.24 48.73 96.32 45.62 C 96.39 42.76 98.79 40.44 101.7 40.43 C 104.61 40.43 106.96 42.9 106.94 45.93" />
    <path fill="#ff9f00" fill-rule="evenodd" d="M 115.81 82.71 C 112.82 82.76 110.36 80.38 110.33 77.42 C 110.3 74.4 112.61 72.02 115.66 71.96 C 118.41 71.91 120.97 74.36 121.09 77.17 C 121.21 80.07 118.75 82.66 115.81 82.71" />
    <path fill="#ffffff" fill-rule="evenodd" d="M 101.41 82.71 C 98.46 82.56 96.18 80.02 96.31 77.03 C 96.44 74.19 98.95 71.87 101.81 71.95 C 104.66 72.02 107.22 74.74 107.07 77.55 C 106.92 80.49 104.33 82.86 101.41 82.71" />
</svg>