<?xml version="1.0" encoding="utf-8"?>
<!-- Generator: Avocode 2.6.0 - http://avocode.com -->
<svg height="88" width="97" xmlns:xlink="http://www.w3.org/1999/xlink" xmlns="http://www.w3.org/2000/svg" viewBox="0 0 97 88">
    <path fill="#0f5481" fill-rule="evenodd" d="M 0.48 34.5 C -0.89 31.17 0.93 28.46 4.54 28.46 L 91.46 28.46 C 95.07 28.46 96.96 31.2 95.68 34.58 L 95.36 35.42 C 94.07 38.8 90.1 41.54 86.5 41.54 L 9.91 41.54 C 6.3 41.54 2.26 38.83 0.89 35.5 L 0.48 34.5 Z M 0.48 34.5" />
    <path fill="#0f5481" fill-rule="evenodd" d="M 43.45 2.33 C 43.56 3.45 43.13 4.38 42.52 5.3 C 39.72 9.54 36.92 13.78 34.23 18.08 C 33.55 19.16 33 19.29 32.09 18.54 C 30.94 18.69 30.23 17.97 29.57 17.2 C 28.65 16.69 28.6 16.19 29.22 15.27 C 32.2 10.8 35.08 6.27 37.99 1.75 C 38.69 0.67 39.6 -0.07 40.94 0.1 C 42.24 0.27 43.11 1.03 43.45 2.33" />
    <path fill="#0f5481" fill-rule="evenodd" d="M 60.79 2.11 C 62.08 4.61 63.78 6.84 65.26 9.22 C 66.52 11.24 67.8 13.25 69.17 15.2 C 69.83 16.12 69.87 16.73 68.78 17.21 C 68.24 18.09 67.49 18.59 66.43 18.53 C 65.51 19.24 64.93 19.25 64.21 18.09 C 61.42 13.6 58.48 9.2 55.61 4.76 C 54.58 3.17 54.78 1.64 56.09 0.68 C 57.48 -0.35 59.05 -0.07 60.24 1.4 C 60.43 1.64 60.6 1.87 60.79 2.11" />
    <path fill="#2d8ac7" fill-rule="evenodd" d="M 66.43 18.53 C 67.21 18.09 67.99 17.65 68.78 17.21 C 70.99 20.6 73.21 23.99 75.4 27.4 C 75.76 27.96 76.06 28.22 76.81 28.06 C 78.08 27.79 79.23 28.29 80.28 28.99 C 82.19 30.6 82.81 32.68 82 34.78 C 81.23 36.82 79.21 38.1 76.98 37.98 C 74.89 37.86 73.1 36.37 72.51 34.22 C 72.16 32.97 72.29 31.72 72.98 30.65 C 73.48 29.89 73.4 29.35 72.84 28.76 C 72.77 28.66 72.7 28.57 72.63 28.47 C 70.87 25.71 69.1 22.96 67.35 20.19 C 67.01 19.66 66.55 19.19 66.43 18.53" />
    <path fill="#2d8ac7" fill-rule="evenodd" d="M 29.57 17.2 C 30.5 17.47 31.24 18.11 32.09 18.54 C 31.25 20.3 30.05 21.84 29.01 23.48 C 27.91 25.23 26.8 26.97 25.69 28.72 C 25.39 29.21 24.81 29.51 25.3 30.34 C 26.82 32.89 26.13 35.74 23.76 37.22 C 21.53 38.62 18.63 38.06 17.08 35.91 C 15.45 33.66 15.94 30.85 18.29 28.94 C 19.45 28.27 20.66 27.78 22.04 28.11 C 22.38 28.19 22.61 28.12 22.79 27.83 C 24.99 24.25 27.52 20.87 29.57 17.2" />
    <path fill="#ff9f00" fill-rule="evenodd" d="M 84.21 48.74 C 82.38 54.78 80.53 60.81 78.68 66.84 C 77.61 70.35 76.53 73.85 75.46 77.35 C 74.56 80.31 73.8 80.88 70.71 80.85 C 70.32 80.85 69.94 80.86 69.55 80.84 C 67.71 80.76 66.74 79.53 67.22 77.73 C 68.43 73.29 69.69 68.86 70.93 64.43 C 72.43 59.1 73.94 53.77 75.44 48.43 C 76.05 46.22 77.07 45.43 79.38 45.41 C 80.19 45.4 81 45.39 81.82 45.4 C 83.86 45.44 84.81 46.76 84.21 48.74 M 63.71 77.18 C 63.25 80.53 62.83 80.87 59.47 80.78 C 58.96 80.78 58.44 80.81 57.93 80.77 C 56.18 80.64 55.11 79.38 55.34 77.65 C 56.54 68.65 57.76 59.65 58.97 50.65 C 59.09 49.76 59.18 48.87 59.3 47.98 C 59.52 46.25 60.48 45.39 62.2 45.4 C 62.88 45.4 63.56 45.43 64.25 45.44 C 66.82 45.5 67.79 46.56 67.48 49.16 C 66.99 53.14 66.44 57.11 65.91 61.08 C 65.18 66.45 64.45 71.82 63.71 77.18 M 51.28 77.47 C 51.27 79.98 50.4 80.84 47.88 80.86 C 43.37 80.9 43.07 80.64 43.05 76.16 C 43.04 71.8 43.05 67.47 43.05 63.11 L 43.04 63.11 C 43.04 58.24 43.03 53.43 43.04 48.6 C 43.05 46.3 43.93 45.41 46.21 45.4 C 46.85 45.39 47.49 45.39 48.13 45.4 C 50.33 45.42 51.26 46.31 51.27 48.5 C 51.29 54.06 51.28 59.61 51.28 65.16 C 51.28 69.27 51.29 73.37 51.28 77.47 M 36.31 80.77 C 35.76 80.81 35.18 80.78 34.67 80.78 L 34.67 80.83 C 34.16 80.83 33.96 80.83 33.62 80.83 C 31.95 80.83 31.02 80.15 30.78 78.51 C 30.08 73.7 29.44 68.88 28.79 64.06 C 28.13 59.16 27.49 54.25 26.8 49.35 C 26.43 46.68 27.39 45.51 30.1 45.43 C 34.44 45.32 34.64 45.52 35.22 49.82 C 36.44 59.04 37.71 68.25 38.96 77.47 C 39.21 79.32 38.18 80.65 36.31 80.77 M 24.65 80.85 C 23.92 80.88 23.19 80.87 22.47 80.85 C 20.81 80.81 19.62 79.98 19.13 78.38 C 16.08 68.45 13.04 58.51 10.04 48.57 C 9.47 46.71 10.44 45.46 12.36 45.39 C 12.87 45.37 13.39 45.39 13.9 45.39 L 13.9 45.42 C 14.67 45.42 15.37 45.31 16.07 45.45 C 17.49 45.72 18.37 46.65 18.76 48.05 C 21.51 57.89 24.28 67.73 27.03 77.57 C 27.56 79.48 26.6 80.79 24.65 80.85 M 89.81 41.06 C 65.51 41.05 41.21 41.05 16.9 41.05 C 13.31 41.05 9.73 41.04 6.14 41.06 C 5.47 41.06 4.75 40.96 4.24 41.57 C 8.49 55.32 12.76 69.07 16.97 82.82 C 17.58 84.79 18.59 86.27 20.57 86.99 C 21.16 87.05 21.75 87.17 22.34 87.17 C 39.59 87.18 56.84 87.18 74.09 87.17 C 76.8 87.17 78.53 85.92 79.33 83.34 C 83.64 69.42 87.93 55.49 92.23 41.56 C 91.55 40.83 90.64 41.06 89.81 41.06" />
    <path fill="#0f5481" fill-rule="evenodd" d="M 77.4 36.67 C 75.42 36.7 73.72 35.06 73.68 33.07 C 73.64 31.09 75.28 29.38 77.28 29.34 C 79.25 29.3 80.95 30.94 81.01 32.94 C 81.06 34.88 79.37 36.64 77.4 36.67" />
    <path fill="#0f5481" fill-rule="evenodd" d="M 24.76 32.97 C 24.78 34.97 23.14 36.66 21.16 36.67 C 19.17 36.69 17.51 35.04 17.49 33.04 C 17.48 31.02 19.08 29.37 21.09 29.34 C 23.08 29.31 24.73 30.94 24.76 32.97" />
</svg>