<?xml version="1.0" encoding="utf-8"?>
<!-- Generator: Avocode 2.6.0 - http://avocode.com -->
<svg height="69" width="100" xmlns:xlink="http://www.w3.org/1999/xlink" xmlns="http://www.w3.org/2000/svg" viewBox="0 0 100 69">
    <path fill="#ff9f00" fill-rule="evenodd" d="M 0.17 66.76 C 0.31 67.07 -0.04 56.35 0.04 52.87 C -0.06 52.34 0.01 51.66 0.35 51.38 C 0.71 50.94 1.21 50.92 1.71 50.92 C 9.87 50.9 18.02 50.9 26.17 50.92 C 26.67 50.92 27.18 50.93 27.54 51.37 C 27.55 51.83 27.53 52.3 27.57 52.75 C 27.63 53.36 27.57 64.21 27.56 64.6 C 27.56 65.16 27.56 65.73 27.57 66.3 C 27.15 67 26.44 66.81 25.83 66.82 C 20.46 66.84 15.08 66.83 9.71 66.83 C 7.36 66.83 5.01 66.83 2.66 66.83 C 2.38 66.83 2.09 66.81 1.81 66.84 C 1.47 66.88 1.03 66.81 0.98 67.3 C 0.94 67.72 1.28 67.92 1.61 68.07 C 2.08 68.28 2.59 68.24 3.09 68.25 C 5.61 68.26 8.14 68.24 10.67 68.26 C 11.19 68.27 11.76 68.17 12.13 68.7" />
    <path fill="#fdfdfd" fill-rule="evenodd" d="M 88.12 3.51 C 88.11 15.45 88.11 27.39 88.1 39.34 C 88.1 42.97 88.08 46.61 88.13 50.25 C 88.14 51.13 87.87 51.4 86.98 51.4 C 68.09 51.37 49.19 51.38 30.29 51.39 C 29.56 51.39 29.26 51.25 29.17 50.42 C 28.97 48.7 28.26 47.25 26.31 46.9 C 25.73 46.8 25.79 46.41 25.79 46.02 C 25.78 44.7 25.76 43.39 25.66 42.07 C 25.2 35.37 18.76 30.21 12.17 30.99 C 11.51 31.07 11.29 30.91 11.29 30.22 C 11.31 21.63 11.3 13.04 11.29 4.45 C 11.29 3.97 11.38 3.61 11.9 3.48 C 12.11 3.07 12.5 3.02 12.9 2.99 C 13.32 2.97 13.75 2.97 14.18 2.97 C 38.07 2.97 61.96 2.96 85.85 2.98 C 86.62 2.99 87.52 2.65 88.12 3.51" />
    <path fill="#0f5481" fill-rule="evenodd" d="M 88.12 3.51 C 83.88 3.49 79.64 3.46 75.4 3.46 C 54.52 3.46 33.63 3.46 12.75 3.46 C 12.47 3.46 12.18 3.47 11.9 3.48 C 10.97 3.22 11.11 3.89 11.11 4.41 C 11.11 9.83 11.11 15.25 11.11 20.67 C 11.11 23.8 11.09 26.94 11.12 30.08 C 11.13 30.8 10.97 31.17 10.19 31.31 C 9.11 31.51 8.12 32.02 7.08 32.53 C 6.85 32.17 6.94 31.81 6.94 31.48 C 6.93 22.42 6.92 13.36 6.93 4.31 C 6.93 1.43 8.3 0.04 11.19 0.04 C 36.97 0.04 62.75 0.04 88.53 0.04 C 91.28 0.04 92.52 1.35 92.52 4.29 C 92.53 11.32 92.53 18.34 92.53 25.37 C 92.53 33.67 92.51 41.98 92.54 50.29 C 92.55 51.18 92.32 51.41 91.42 51.41 C 90.34 51.41 90.2 51.44 88.52 51.44 C 87.87 50.84 88.11 49.34 88.11 48.36 C 88.09 33.81 88.31 19.26 88.3 4.71 C 88.3 4.31 88.48 3.86 88.12 3.51" />
    <path fill="#0f5481" fill-rule="evenodd" d="M 98.38 53.07 C 99.1 53.02 99.43 53.22 99.4 54.07 C 99.32 56.09 99.39 58.11 99.37 60.12 C 99.36 60.76 99.38 61.44 98.58 61.68 C 93.91 61.68 89.24 61.67 84.58 61.67 C 66.61 61.67 48.65 61.68 30.69 61.67 C 28.96 61.67 29.21 61.86 29.19 60.21 C 29.18 58.14 29.2 56.08 29.18 54.01 C 29.17 53.42 29.27 53.1 29.99 53.11 C 33.37 53.15 36.76 53.14 40.14 53.15 C 40.55 53.43 40.58 53.85 40.62 54.28 C 40.75 55.92 41.08 56.25 42.74 56.26 C 46.59 56.29 50.43 56.27 54.28 56.27 C 55.17 56.27 56.07 56.3 56.96 56.25 C 58.27 56.18 58.65 55.82 58.74 54.5 C 58.79 53.75 58.92 53.14 59.85 53.13 C 71.91 53.13 83.98 53.12 96.04 53.12 C 96.82 53.12 97.6 53.09 98.38 53.07" />
    <path fill="#0f5481" fill-rule="evenodd" d="M 2.65 44.85 C 2.66 43.29 2.57 41.73 3.05 40.19 C 4.64 35.07 9.53 32.02 15.03 32.76 C 19.97 33.42 23.84 37.79 24.02 42.94 C 24.07 44.54 24.01 46.15 24.04 47.75 C 24.06 48.38 23.89 48.66 23.21 48.61 C 22.12 48.53 20.73 49.04 20 48.41 C 19.3 47.8 19.83 46.4 19.78 45.34 C 19.73 44.24 19.82 43.14 19.65 42.03 C 19.16 38.93 16.46 36.76 13.18 36.86 C 9.85 36.96 7.17 39.33 6.97 42.47 C 6.86 44.21 6.9 45.96 6.92 47.7 C 6.93 48.38 6.75 48.67 6.02 48.62 C 5.21 48.56 4.38 48.55 3.57 48.62 C 2.78 48.68 2.6 48.34 2.64 47.63 C 2.69 46.71 2.65 45.78 2.65 44.85" />
    <path fill="#2d8ac7" fill-rule="evenodd" d="M 59.85 53.13 C 59.23 53.3 59.22 53.78 59.21 54.3 C 59.2 56.3 58.79 56.7 56.75 56.7 C 52.06 56.71 47.36 56.71 42.67 56.71 C 40.57 56.7 40.17 56.3 40.16 54.22 C 40.16 53.87 40.15 53.51 40.14 53.15 C 46.71 53.15 53.28 53.14 59.85 53.13" />
    <path fill="#0f5481" fill-rule="evenodd" d="M 12.13 68.7 C 8.85 68.69 5.57 68.67 2.29 68.67 C 1.41 68.67 0.66 68.48 0.32 67.55 C -0.02 66.63 0.2 66.3 1.16 66.3 C 5.22 66.3 9.28 66.3 13.35 66.3 C 18.09 66.3 22.83 66.3 27.57 66.3 C 27.8 67.94 27.21 68.65 25.57 68.66 C 21.09 68.68 16.61 68.69 12.13 68.7" />
    <path fill="#0f5481" fill-rule="evenodd" d="M 27.54 51.37 C 18.47 51.37 9.41 51.37 0.35 51.38 C 0.22 49.54 0.66 49.05 2.47 49.05 C 10.06 49.04 17.65 49.04 25.24 49.04 C 27.13 49.04 27.54 49.46 27.54 51.37" />
    <path fill="#ff9f00" fill-rule="evenodd" d="M 29.03 18.87 C 26.43 18.87 23.83 18.88 21.23 18.86 C 20 18.86 19.78 18.65 19.77 17.43 C 19.76 15.51 19.79 13.59 19.77 11.66 C 19.76 10.71 20.2 10.31 21.13 10.31 C 26.5 10.32 31.88 10.32 37.26 10.32 C 38.13 10.32 38.59 10.73 38.59 11.61 C 38.58 13.61 38.59 15.6 38.58 17.59 C 38.57 18.46 38.16 18.88 37.25 18.87 C 34.51 18.85 31.77 18.87 29.03 18.87" />
    <path fill="#ff9f00" fill-rule="evenodd" d="M 60 35.99 C 54.01 35.99 48.02 35.99 42.03 35.99 C 41.71 35.99 41.39 36 41.07 35.97 C 40.61 35.92 40.37 35.64 40.34 35.19 C 40.31 34.73 40.56 34.43 40.99 34.33 C 41.26 34.27 41.55 34.28 41.83 34.28 C 53.85 34.28 65.87 34.28 77.88 34.29 C 78.58 34.29 79.61 34.02 79.6 35.15 C 79.59 36.3 78.55 35.99 77.86 35.99 C 71.91 36.01 65.96 36 60 36 L 60 35.99 Z M 60 35.99" />
    <path fill="#2d8ac7" fill-rule="evenodd" d="M 59.95 30 C 53.93 30 47.9 30 41.88 30 C 41.63 30 41.38 30.01 41.13 29.99 C 40.62 29.95 40.36 29.66 40.35 29.16 C 40.33 28.69 40.61 28.42 41.04 28.34 C 41.35 28.28 41.67 28.29 41.99 28.29 C 53.97 28.29 65.95 28.29 77.93 28.29 C 78.11 28.29 78.28 28.3 78.46 28.29 C 79.1 28.29 79.65 28.47 79.62 29.22 C 79.6 29.93 79.04 30 78.46 30 C 74.36 30 70.26 30 66.16 30 C 64.09 30 62.02 30 59.95 30 L 59.95 30" />
    <path fill="#ff9f00" fill-rule="evenodd" d="M 59.97 25.72 C 53.94 25.72 47.92 25.72 41.89 25.72 C 41.68 25.72 41.46 25.72 41.25 25.72 C 40.7 25.71 40.36 25.46 40.35 24.89 C 40.34 24.31 40.72 24.08 41.23 24.03 C 41.52 24 41.8 24.01 42.09 24.01 C 54.03 24.01 65.97 24.01 77.92 24.01 C 78.06 24.01 78.2 24.02 78.34 24.01 C 79 24 79.64 24.1 79.62 24.93 C 79.6 25.71 78.96 25.72 78.36 25.72 C 72.23 25.71 66.1 25.72 59.97 25.72" />
    <path fill="#2d8ac7" fill-rule="evenodd" d="M 59.96 22.29 C 53.97 22.29 47.98 22.29 41.99 22.29 C 41.67 22.29 41.35 22.3 41.03 22.27 C 40.63 22.22 40.39 21.97 40.35 21.57 C 40.3 21.11 40.5 20.78 40.93 20.67 C 41.26 20.58 41.63 20.58 41.99 20.58 C 53.97 20.58 65.95 20.58 77.93 20.6 C 78.64 20.6 79.65 20.38 79.61 21.51 C 79.58 22.55 78.6 22.29 77.93 22.29 C 71.94 22.3 65.95 22.3 59.96 22.29" />
    <path fill="#2d8ac7" fill-rule="evenodd" d="M 51.4 40.27 C 48.16 40.27 44.91 40.27 41.67 40.27 C 41.04 40.27 40.35 40.3 40.35 39.43 C 40.35 38.59 41.02 38.56 41.66 38.56 C 48.18 38.56 54.71 38.56 61.23 38.56 C 61.74 38.56 62.25 38.57 62.47 39.16 C 62.7 39.8 62.25 40.26 61.35 40.27 C 59.1 40.28 56.85 40.27 54.61 40.27 C 53.54 40.27 52.47 40.27 51.4 40.27" />
    <path fill="#2d8ac7" fill-rule="evenodd" d="M 31.6 25.72 C 30.03 25.72 28.47 25.71 26.9 25.72 C 26.3 25.72 25.8 25.59 25.8 24.87 C 25.8 24.16 26.32 24.02 26.9 24.02 C 30.11 24.01 33.31 24.02 36.52 24.01 C 37.15 24.01 37.71 24.19 37.68 24.94 C 37.65 25.62 37.11 25.73 36.51 25.73 C 34.88 25.72 33.24 25.72 31.6 25.72 L 31.6 25.72" />
    <path fill="#2d8ac7" fill-rule="evenodd" d="M 31.6 22.3 C 30.03 22.3 28.47 22.29 26.9 22.3 C 26.31 22.3 25.8 22.17 25.8 21.46 C 25.8 20.75 26.31 20.59 26.9 20.59 C 30.13 20.59 33.37 20.59 36.61 20.59 C 37.22 20.59 37.69 20.81 37.66 21.5 C 37.63 22.13 37.17 22.3 36.61 22.29 C 34.94 22.29 33.27 22.29 31.6 22.29 L 31.6 22.3" />
    <path fill="#2d8ac7" fill-rule="evenodd" d="M 21.8 25.7 C 21.37 25.7 20.94 25.73 20.52 25.7 C 20.06 25.66 19.82 25.38 19.8 24.92 C 19.77 24.47 20.01 24.11 20.44 24.08 C 21.39 24.02 22.35 24.01 23.31 24.07 C 23.72 24.09 24 24.44 23.99 24.89 C 23.97 25.39 23.69 25.69 23.18 25.7 C 22.72 25.72 22.26 25.71 21.8 25.71 L 21.8 25.7" />
    <path fill="#2d8ac7" fill-rule="evenodd" d="M 21.82 22.29 C 21.43 22.29 21.04 22.29 20.64 22.28 C 20.14 22.27 19.84 22.01 19.79 21.51 C 19.75 21 20.04 20.65 20.51 20.62 C 21.44 20.57 22.37 20.58 23.29 20.64 C 23.7 20.67 24 20.99 23.99 21.44 C 23.98 21.93 23.71 22.25 23.21 22.28 C 22.75 22.31 22.28 22.29 21.82 22.29" />
    <path fill="#e2eaec" fill-rule="evenodd" d="M 49.75 1.3 C 50.06 1.36 50.25 1.54 50.23 1.88 C 50.21 2.16 50.03 2.33 49.76 2.35 C 49.42 2.36 49.21 2.14 49.2 1.84 C 49.2 1.53 49.41 1.33 49.75 1.3" />
    <path fill="#ff9f00" fill-rule="evenodd" d="M 89.04 58.28 C 88.26 58.28 87.48 58.28 86.69 58.28 C 86.07 58.29 85.61 58.02 85.63 57.37 C 85.65 56.79 86.07 56.52 86.66 56.52 C 88.27 56.53 89.87 56.53 91.47 56.53 C 92.1 56.52 92.55 56.8 92.53 57.44 C 92.52 58.03 92.08 58.28 91.5 58.28 C 90.68 58.28 89.86 58.28 89.04 58.28" />
    <path fill="#ffffff" fill-rule="evenodd" d="M 15.31 57.79 C 15.31 56.65 14.36 55.73 13.23 55.73 C 12.09 55.73 11.21 56.65 11.21 57.79 C 11.21 58.49 11.48 59.1 12.13 59.48 L 12.13 61.91 C 12.13 62.57 12.65 63.1 13.3 63.1 C 13.96 63.1 14.48 62.57 14.48 61.91 L 14.48 59.48 C 14.91 59.1 15.31 58.49 15.31 57.79" />
</svg>